<?xml version="1.0" encoding="UTF-8" standalone="no"?>
<svg
   xmlns:dc="http://purl.org/dc/elements/1.1/"
   xmlns:cc="http://creativecommons.org/ns#"
   xmlns:rdf="http://www.w3.org/1999/02/22-rdf-syntax-ns#"
   xmlns:svg="http://www.w3.org/2000/svg"
   xmlns="http://www.w3.org/2000/svg"
   xmlns:sodipodi="http://sodipodi.sourceforge.net/DTD/sodipodi-0.dtd"
   xmlns:inkscape="http://www.inkscape.org/namespaces/inkscape"
   width="45"
   height="45"
   id="svg8289"
   version="1.1"
   inkscape:version="0.48.5 r10040"
   sodipodi:docname="wq.svg">
  <metadata
     id="metadata8305">
    <rdf:RDF>
      <cc:Work
         rdf:about="">
        <dc:format>image/svg+xml</dc:format>
        <dc:type
           rdf:resource="http://purl.org/dc/dcmitype/StillImage" />
      </cc:Work>
    </rdf:RDF>
  </metadata>
  <defs
     id="defs8303" />
  <sodipodi:namedview
     pagecolor="#ffffff"
     bordercolor="#666666"
     borderopacity="1"
     objecttolerance="10"
     gridtolerance="10"
     guidetolerance="10"
     inkscape:pageopacity="0"
     inkscape:pageshadow="2"
     inkscape:window-width="1407"
     inkscape:window-height="951"
     id="namedview8301"
     showgrid="false"
     inkscape:zoom="10.488889"
     inkscape:cx="10.355114"
     inkscape:cy="24.321422"
     inkscape:window-x="0"
     inkscape:window-y="111"
     inkscape:window-maximized="0"
     inkscape:current-layer="svg8289" />
  <g
     id="g8862-2"
     style="fill:#ffffff;stroke:#ffffff;stroke-width:5;stroke-miterlimit:4;stroke-dasharray:none">
    <path
       d="m 9,26 c 8.5,-1.5 21,-1.5 27,0 L 38,14 31,25 V 11 l -5.5,13.5 -3,-15 -3,15 -5.5,-14 V 25 L 7,14 9,26 z"
       id="path8295-7"
       inkscape:connector-curvature="0"
       style="fill:#ffffff;fill-rule:evenodd;stroke:#ffffff;stroke-width:5;stroke-linecap:butt;stroke-linejoin:round;stroke-miterlimit:4;stroke-dasharray:none" />
    <path
       d="m 9,26 c 0,2 1.5,2 2.5,4 1,1.5 1,1 0.5,3.5 -1.5,1 -1.5,2.5 -1.5,2.5 -1.5,1.5 0.5,2.5 0.5,2.5 6.5,1 16.5,1 23,0 0,0 1.5,-1 0,-2.5 0,0 0.5,-1.5 -1,-2.5 -0.5,-2.5 -0.5,-2 0.5,-3.5 1,-2 2.5,-2 2.5,-4 -8.5,-1.5 -18.5,-1.5 -27,0 z"
       id="path8297-7"
       inkscape:connector-curvature="0"
       style="fill:#ffffff;fill-rule:evenodd;stroke:#ffffff;stroke-width:5;stroke-linecap:butt;stroke-linejoin:round;stroke-miterlimit:4;stroke-dasharray:none" />
    <path
       d="M 11.5,30 C 15,29 30,29 33.5,30 M 12,33.5 c 6,-1 15,-1 21,0"
       id="path8299-0"
       inkscape:connector-curvature="0"
       style="fill:#ffffff;stroke:#ffffff;stroke-width:5;stroke-linecap:round;stroke-linejoin:round;stroke-miterlimit:4;stroke-dasharray:none" />
    <path
       transform="matrix(0.68181817,0,0,0.68181817,2.7691642,5.9976888)"
       d="m 8.1038136,7.9131355 c 0,1.7375908 -1.4085956,3.1461865 -3.1461863,3.1461865 -1.7375907,0 -3.1461864,-1.4085957 -3.1461864,-3.1461865 0,-1.7375907 1.4085957,-3.1461863 3.1461864,-3.1461863 1.7375907,0 3.1461863,1.4085956 3.1461863,3.1461863 z"
       sodipodi:ry="3.1461864"
       sodipodi:rx="3.1461864"
       sodipodi:cy="7.9131355"
       sodipodi:cx="4.9576273"
       id="path8821-7"
       style="fill:#ffffff;stroke:#ffffff;stroke-width:7.33333346000000040;stroke-miterlimit:4;stroke-dasharray:none"
       sodipodi:type="arc" />
    <path
       transform="matrix(0.68181817,0,0,0.68181817,10.157935,2.13646)"
       d="m 8.1038136,7.9131355 c 0,1.7375908 -1.4085956,3.1461865 -3.1461863,3.1461865 -1.7375907,0 -3.1461864,-1.4085957 -3.1461864,-3.1461865 0,-1.7375907 1.4085957,-3.1461863 3.1461864,-3.1461863 1.7375907,0 3.1461863,1.4085956 3.1461863,3.1461863 z"
       sodipodi:ry="3.1461864"
       sodipodi:rx="3.1461864"
       sodipodi:cy="7.9131355"
       sodipodi:cx="4.9576273"
       id="path8821-0-2"
       style="fill:#ffffff;stroke:#ffffff;stroke-width:7.33333346000000040;stroke-miterlimit:4;stroke-dasharray:none"
       sodipodi:type="arc" />
    <path
       transform="matrix(0.68181817,0,0,0.68181817,19.1198,1.3737482)"
       d="m 8.1038136,7.9131355 c 0,1.7375908 -1.4085956,3.1461865 -3.1461863,3.1461865 -1.7375907,0 -3.1461864,-1.4085957 -3.1461864,-3.1461865 0,-1.7375907 1.4085957,-3.1461863 3.1461864,-3.1461863 1.7375907,0 3.1461863,1.4085956 3.1461863,3.1461863 z"
       sodipodi:ry="3.1461864"
       sodipodi:rx="3.1461864"
       sodipodi:cy="7.9131355"
       sodipodi:cx="4.9576273"
       id="path8821-9-8"
       style="fill:#ffffff;stroke:#ffffff;stroke-width:7.33333346000000040;stroke-miterlimit:4;stroke-dasharray:none"
       sodipodi:type="arc" />
    <path
       transform="matrix(0.68181817,0,0,0.68181817,27.986325,2.231799)"
       d="m 8.1038136,7.9131355 c 0,1.7375908 -1.4085956,3.1461865 -3.1461863,3.1461865 -1.7375907,0 -3.1461864,-1.4085957 -3.1461864,-3.1461865 0,-1.7375907 1.4085957,-3.1461863 3.1461864,-3.1461863 1.7375907,0 3.1461863,1.4085956 3.1461863,3.1461863 z"
       sodipodi:ry="3.1461864"
       sodipodi:rx="3.1461864"
       sodipodi:cy="7.9131355"
       sodipodi:cx="4.9576273"
       id="path8821-6-0"
       style="fill:#ffffff;stroke:#ffffff;stroke-width:7.33333346000000040;stroke-miterlimit:4;stroke-dasharray:none"
       sodipodi:type="arc" />
    <path
       transform="matrix(0.68181817,0,0,0.68181817,35.518105,5.7593415)"
       d="m 8.1038136,7.9131355 c 0,1.7375908 -1.4085956,3.1461865 -3.1461863,3.1461865 -1.7375907,0 -3.1461864,-1.4085957 -3.1461864,-3.1461865 0,-1.7375907 1.4085957,-3.1461863 3.1461864,-3.1461863 1.7375907,0 3.1461863,1.4085956 3.1461863,3.1461863 z"
       sodipodi:ry="3.1461864"
       sodipodi:rx="3.1461864"
       sodipodi:cy="7.9131355"
       sodipodi:cx="4.9576273"
       id="path8821-4-0"
       style="fill:#ffffff;stroke:#ffffff;stroke-width:7.33333346000000040;stroke-miterlimit:4;stroke-dasharray:none"
       sodipodi:type="arc" />
  </g>
  <g
     id="g8862"
     style="stroke-width:2;stroke-miterlimit:4;stroke-dasharray:none">
    <path
       d="m 9,26 c 8.5,-1.5 21,-1.5 27,0 L 38,14 31,25 V 11 l -5.5,13.5 -3,-15 -3,15 -5.5,-14 V 25 L 7,14 9,26 z"
       id="path8295"
       inkscape:connector-curvature="0"
       style="fill:#ffffff;fill-rule:evenodd;stroke:#000000;stroke-width:2;stroke-linecap:butt;stroke-linejoin:round;stroke-miterlimit:4;stroke-dasharray:none" />
    <path
       d="m 9,26 c 0,2 1.5,2 2.5,4 1,1.5 1,1 0.5,3.5 -1.5,1 -1.5,2.5 -1.5,2.5 -1.5,1.5 0.5,2.5 0.5,2.5 6.5,1 16.5,1 23,0 0,0 1.5,-1 0,-2.5 0,0 0.5,-1.5 -1,-2.5 -0.5,-2.5 -0.5,-2 0.5,-3.5 1,-2 2.5,-2 2.5,-4 -8.5,-1.5 -18.5,-1.5 -27,0 z"
       id="path8297"
       inkscape:connector-curvature="0"
       style="fill:#ffffff;fill-rule:evenodd;stroke:#000000;stroke-width:2;stroke-linecap:butt;stroke-linejoin:round;stroke-miterlimit:4;stroke-dasharray:none" />
    <path
       d="M 11.5,30 C 15,29 30,29 33.5,30 M 12,33.5 c 6,-1 15,-1 21,0"
       id="path8299"
       inkscape:connector-curvature="0"
       style="fill:none;stroke:#000000;stroke-width:2;stroke-linecap:round;stroke-linejoin:round;stroke-miterlimit:4;stroke-dasharray:none" />
    <path
       transform="matrix(0.68181817,0,0,0.68181817,2.7691642,5.9976888)"
       d="m 8.1038136,7.9131355 a 3.1461864,3.1461864 0 1 1 -6.2923727,0 3.1461864,3.1461864 0 1 1 6.2923727,0 z"
       sodipodi:ry="3.1461864"
       sodipodi:rx="3.1461864"
       sodipodi:cy="7.9131355"
       sodipodi:cx="4.9576273"
       id="path8821"
       style="fill:#ffffff;stroke:#000000;stroke-width:2.93333338;stroke-miterlimit:4;stroke-dasharray:none"
       sodipodi:type="arc" />
    <path
       transform="matrix(0.68181817,0,0,0.68181817,10.157935,2.13646)"
       d="m 8.1038136,7.9131355 a 3.1461864,3.1461864 0 1 1 -6.2923727,0 3.1461864,3.1461864 0 1 1 6.2923727,0 z"
       sodipodi:ry="3.1461864"
       sodipodi:rx="3.1461864"
       sodipodi:cy="7.9131355"
       sodipodi:cx="4.9576273"
       id="path8821-0"
       style="fill:#ffffff;stroke:#000000;stroke-width:2.93333338;stroke-miterlimit:4;stroke-dasharray:none"
       sodipodi:type="arc" />
    <path
       transform="matrix(0.68181817,0,0,0.68181817,19.1198,1.3737482)"
       d="m 8.1038136,7.9131355 a 3.1461864,3.1461864 0 1 1 -6.2923727,0 3.1461864,3.1461864 0 1 1 6.2923727,0 z"
       sodipodi:ry="3.1461864"
       sodipodi:rx="3.1461864"
       sodipodi:cy="7.9131355"
       sodipodi:cx="4.9576273"
       id="path8821-9"
       style="fill:#ffffff;stroke:#000000;stroke-width:2.93333338;stroke-miterlimit:4;stroke-dasharray:none"
       sodipodi:type="arc" />
    <path
       transform="matrix(0.68181817,0,0,0.68181817,27.986325,2.231799)"
       d="m 8.1038136,7.9131355 a 3.1461864,3.1461864 0 1 1 -6.2923727,0 3.1461864,3.1461864 0 1 1 6.2923727,0 z"
       sodipodi:ry="3.1461864"
       sodipodi:rx="3.1461864"
       sodipodi:cy="7.9131355"
       sodipodi:cx="4.9576273"
       id="path8821-6"
       style="fill:#ffffff;stroke:#000000;stroke-width:2.93333338;stroke-miterlimit:4;stroke-dasharray:none"
       sodipodi:type="arc" />
    <path
       transform="matrix(0.68181817,0,0,0.68181817,35.518105,5.7593415)"
       d="m 8.1038136,7.9131355 a 3.1461864,3.1461864 0 1 1 -6.2923727,0 3.1461864,3.1461864 0 1 1 6.2923727,0 z"
       sodipodi:ry="3.1461864"
       sodipodi:rx="3.1461864"
       sodipodi:cy="7.9131355"
       sodipodi:cx="4.9576273"
       id="path8821-4"
       style="fill:#ffffff;stroke:#000000;stroke-width:2.93333338;stroke-miterlimit:4;stroke-dasharray:none"
       sodipodi:type="arc" />
  </g>
</svg>
